module gitlab.com/ecp-ci/gljobctx-go

go 1.18

require (
	github.com/go-playground/validator/v10 v10.10.1
	github.com/golang-jwt/jwt/v4 v4.2.0
	github.com/golang/mock v1.6.0
	github.com/stretchr/testify v1.7.1
)

require (
	github.com/davecgh/go-spew v1.1.1 // indirect
	github.com/go-playground/locales v0.14.0 // indirect
	github.com/go-playground/universal-translator v0.18.0 // indirect
	github.com/leodido/go-urn v1.2.1 // indirect
	github.com/pmezard/go-difflib v1.0.0 // indirect
	golang.org/x/crypto v0.0.0-20211215153901-e495a2d5b3d3 // indirect
	golang.org/x/sys v0.0.0-20210806184541-e5e7981a1069 // indirect
	golang.org/x/text v0.3.7 // indirect
	gopkg.in/yaml.v3 v3.0.0-20210107192922-496545a6307b // indirect
)
